BSEF09M001Hammad Khan                   ITC       22 21 31
BSEF09M001Khurram                       PF        14 15 25
BSEF09M001Danial Afzal Shah             DLD       20 18 22
BSEF09M003Ali Javed                     ITC       30 22 29
BSEF09M003Younas Ahmad                  PF        34 22 30
BSEF09M003Younas Ahmad                  DLD       10 15 10
BSEF09M005Riffat Kaleem                 ITC       33 20 33
BSEF09M005Riffat Kaleem                 PF        26 11 35
BSEF09M005Riffat Kaleem                 DLD               
BSE859M012Barkat Jan                    ITC       25 18 34
BSEF09M012Barkat Jan                    PF        19    28
BSEF09M012Barkat Jan                    DLD       28 21 34
BITF09M002Khawer Hayat                  ITC       11 18 37
BSEF17M517Khawer Hayat                  PF        19 17 27
BITF09M002Khawer Hayat                  DLD       31 22 34
BITF09M003Kishwar Hameed                ITC       24 20 33
BITF09M003Kishwar Hameed                PF        28 24 37
BITF09M003Kishwar Hameed                DLD       19 15 26
BITF09M003Kishwar Hameed                DLD       19 15 26
BITF09M010Yasir Ubaid                   DLD       18 20 31
BITF09M010Yasir Ubaid                   PF        25 21 34
BITF09M010Yasir Ubaid                   DLD       29 22 33